{
    "name": "tor-2e-gametool",
    "title": "TOR2E - Unofficial Game tool for tor2e system",
    "description": "TOR2E - Unofficial Game tool for The One Ring 2nd edition on Foundry VTT",
    "version": "11.1.0",
    "compatibility": {
      "minimum": "11",
      "verified": "11.315",
      "maximum": "11"
    },
    "id": "tor-2e-gametool",
    "relationships": {
      "systems": [{
        "id": "tor2e",
        "type": "system",
        "manifest": "https://gitlab.com/herve.darritchon/foundryvtt-tor2e/-/raw/main/src/system.json",
        "compatibility": {
          "verified": "3.3.1"
        }
      }]
    },    
    "authors": [
      {
        "name": "Ghorin",
        "flags": {}
      }
    ],
    "esmodules": [
        "main.mjs"
    ],
    "styles": [
      "./styles/gametool.css"
    ],  
    "languages": [
      {
        "lang": "en",
        "name": "English",
        "path": "lang/en.json",
        "flags": {}
      },
      {
        "lang": "fr",
        "name": "French",
        "path": "lang/fr.json",
        "flags": {}
      }
    ],
    "url": "https://gitlab.com/ghorin/tor-2e-gametool",
    "manifest": "https://gitlab.com/ghorin/tor-2e-gametool/-/raw/main/module.json",
    "download": "https://gitlab.com/ghorin/tor-2e-gametool/-/archive/11.1.0/tor-2e-gametool-11.1.0.zip"
}